riscv-mini-five-stage/simulation/PC.vcd
$version Generated by VerilatedVcd $end
$date Mon Jul 29 15:38:47 2019
 $end
$timescale   1ns $end

 $scope module TOP $end
  $var wire  1 $ clock $end
  $var wire  1 ' io_PC_Write $end
  $var wire 32 & io_next_pc [31:0] $end
  $var wire 32 ( io_pc_out [31:0] $end
  $var wire  1 % reset $end
  $scope module PC $end
   $var wire  1 $ clock $end
   $var wire  1 ' io_PC_Write $end
   $var wire 32 & io_next_pc [31:0] $end
   $var wire 32 ( io_pc_out [31:0] $end
   $var wire 32 # pc_reg [31:0] $end
   $var wire  1 % reset $end
  $upscope $end
 $upscope $end
$enddefinitions $end


#0
b00000000000000000000000000000000 #
0$
0%
b00000000000000000000000000000000 &
0'
b00000000000000000000000000000000 (
#1
1$
#2
0$
1'
#3
1$
#4
0$
b00000000000000000000000000000100 &
#5
b00000000000000000000000000000100 #
1$
b00000000000000000000000000000100 (
#6
0$
b00000000000000000000000000001000 &
#7
b00000000000000000000000000001000 #
1$
b00000000000000000000000000001000 (
#8
0$
b00000000000000000000000000001100 &
#9
b00000000000000000000000000001100 #
1$
b00000000000000000000000000001100 (
#10
0$
b00000000000000000000000000010000 &
#11
b00000000000000000000000000010000 #
1$
b00000000000000000000000000010000 (
#12
0$
b00000000000000000000000000010100 &
#13
b00000000000000000000000000010100 #
1$
b00000000000000000000000000010100 (
#14
0$
b00000000000000000000000000011000 &
#15
b00000000000000000000000000011000 #
1$
b00000000000000000000000000011000 (
#16
0$
b00000000000000000000000000011100 &
#17
b00000000000000000000000000011100 #
1$
b00000000000000000000000000011100 (
#18
0$
b00000000000000000000000000100000 &
#19
b00000000000000000000000000100000 #
1$
b00000000000000000000000000100000 (
#20
0$
b00000000000000000000000000100100 &
#21
b00000000000000000000000000100100 #
1$
b00000000000000000000000000100100 (
#22
0$
b00000000000000000000000000101000 &
#23
b00000000000000000000000000101000 #
1$
b00000000000000000000000000101000 (
#24
0$
b00000000000000000000000000101100 &
#25
b00000000000000000000000000101100 #
1$
b00000000000000000000000000101100 (
#26
0$
b00000000000000000000000000110000 &
#27
b00000000000000000000000000110000 #
1$
b00000000000000000000000000110000 (
#28
0$
b00000000000000000000000000110100 &
#29
b00000000000000000000000000110100 #
1$
b00000000000000000000000000110100 (
#30
0$
b00000000000000000000000000111000 &
#31
b00000000000000000000000000111000 #
1$
b00000000000000000000000000111000 (
#32
0$
b00000000000000000000000000111100 &
#33
b00000000000000000000000000111100 #
1$
b00000000000000000000000000111100 (
